…
``` r
# we are going to update variable names to make them a bit easier

litters_df = janitor::clean_names(litters_df)

litters_df
```

    ## # A tibble: 49 x 8
    ##    group litter_number   gd0_weight gd18_weight gd_of_birth pups_born_alive
    ##    <chr> <chr>                <dbl>       <dbl>       <dbl>           <dbl>
    ##  1 Con7  #85                   19.7        34.7          20               3
    ##  2 Con7  #1/2/95/2             27          42            19               8
    ##  3 Con7  #5/5/3/83/3-3         26          41.4          19               6
    ##  4 Con7  #5/4/2/95/2           28.5        44.1          19               5
    ##  5 Con7  #4/2/95/3-3           NA          NA            20               6
    ##  6 Con7  #2/2/95/3-2           NA          NA            20               6
    ##  7 Con7  #1/5/3/83/3-3/2       NA          NA            20               9
    ##  8 Con8  #3/83/3-3             NA          NA            20               9
    ##  9 Con8  #2/95/3               NA          NA            20               8
    ## 10 Con8  #3/5/2/2/95           28.5        NA            20               8
    ## # i 39 more rows
    ## # i 2 more variables: pups_dead_birth <dbl>, pups_survive <dbl>

## `select`

choose some columns and not others

``` r
select(litters_df, group, litter_number)
```

    ## # A tibble: 49 x 2
    ##    group litter_number  
    ##    <chr> <chr>          
    ##  1 Con7  #85            
    ##  2 Con7  #1/2/95/2      
    ##  3 Con7  #5/5/3/83/3-3  
    ##  4 Con7  #5/4/2/95/2    
    ##  5 Con7  #4/2/95/3-3    
    ##  6 Con7  #2/2/95/3-2    
    ##  7 Con7  #1/5/3/83/3-3/2
    ##  8 Con8  #3/83/3-3      
    ##  9 Con8  #2/95/3        
    ## 10 Con8  #3/5/2/2/95    
    ## # i 39 more rows

``` r
select(litters_df, group, gd0_weight)
```

    ## # A tibble: 49 x 2
    ##    group gd0_weight
    ##    <chr>      <dbl>
    ##  1 Con7        19.7
    ##  2 Con7        27  
    ##  3 Con7        26  
    ##  4 Con7        28.5
    ##  5 Con7        NA  
    ##  6 Con7        NA  
    ##  7 Con7        NA  
    ##  8 Con8        NA  
    ##  9 Con8        NA  
    ## 10 Con8        28.5
    ## # i 39 more rows

``` r
select(litters_df, group, gd0_weight:gd_of_birth)
```

    ## # A tibble: 49 x 4
    ##    group gd0_weight gd18_weight gd_of_birth
    ##    <chr>      <dbl>       <dbl>       <dbl>
    ##  1 Con7        19.7        34.7          20
    ##  2 Con7        27          42            19
    ##  3 Con7        26          41.4          19
    ##  4 Con7        28.5        44.1          19
    ##  5 Con7        NA          NA            20
    ##  6 Con7        NA          NA            20
    ##  7 Con7        NA          NA            20
    ##  8 Con8        NA          NA            20
    ##  9 Con8        NA          NA            20
    ## 10 Con8        28.5        NA            20
    ## # i 39 more rows

``` r
# when using select(), you first include the data you wanna use and then the columns you want to keep
# use colon as "range"
```

``` r
select(litters_df, -litter_number)
```

    ## # A tibble: 49 x 7
    ##    group gd0_weight gd18_weight gd_of_birth pups_born_alive pups_dead_birth
    ##    <chr>      <dbl>       <dbl>       <dbl>           <dbl>           <dbl>
    ##  1 Con7        19.7        34.7          20               3               4
    ##  2 Con7        27          42            19               8               0
    ##  3 Con7        26          41.4          19               6               0
    ##  4 Con7        28.5        44.1          19               5               1
    ##  5 Con7        NA          NA            20               6               0
    ##  6 Con7        NA          NA            20               6               0
    ##  7 Con7        NA          NA            20               9               0
    ##  8 Con8        NA          NA            20               9               1
    ##  9 Con8        NA          NA            20               8               0
    ## 10 Con8        28.5        NA            20               8               0
    ## # i 39 more rows
    ## # i 1 more variable: pups_survive <dbl>

``` r
# this will get rid of only a specific column and keep everything else in data set
```

renaming columns

``` r
select(litters_df, GROUP = group, LITTer_NUmber = litter_number)
```

    ## # A tibble: 49 x 2
    ##    GROUP LITTer_NUmber  
    ##    <chr> <chr>          
    ##  1 Con7  #85            
    ##  2 Con7  #1/2/95/2      
    ##  3 Con7  #5/5/3/83/3-3  
    ##  4 Con7  #5/4/2/95/2    
    ##  5 Con7  #4/2/95/3-3    
    ##  6 Con7  #2/2/95/3-2    
    ##  7 Con7  #1/5/3/83/3-3/2
    ##  8 Con8  #3/83/3-3      
    ##  9 Con8  #2/95/3        
    ## 10 Con8  #3/5/2/2/95    
    ## # i 39 more rows

``` r
rename(litters_df, GROUP = group, LITTer = litter_number)
```

    ## # A tibble: 49 x 8
    ##    GROUP LITTer          gd0_weight gd18_weight gd_of_birth pups_born_alive
    ##    <chr> <chr>                <dbl>       <dbl>       <dbl>           <dbl>
    ##  1 Con7  #85                   19.7        34.7          20               3
    ##  2 Con7  #1/2/95/2             27          42            19               8
    ##  3 Con7  #5/5/3/83/3-3         26          41.4          19               6
    ##  4 Con7  #5/4/2/95/2           28.5        44.1          19               5
    ##  5 Con7  #4/2/95/3-3           NA          NA            20               6
    ##  6 Con7  #2/2/95/3-2           NA          NA            20               6
    ##  7 Con7  #1/5/3/83/3-3/2       NA          NA            20               9
    ##  8 Con8  #3/83/3-3             NA          NA            20               9
    ##  9 Con8  #2/95/3               NA          NA            20               8
    ## 10 Con8  #3/5/2/2/95           28.5        NA            20               8
    ## # i 39 more rows
    ## # i 2 more variables: pups_dead_birth <dbl>, pups_survive <dbl>

``` r
# can use select but rename is also an available function to use
```

select helper

``` r
# using some additional functions - selecting columns that we know we want to keep based on some criteria.

select(litters_df, starts_with("gd"))
```

    ## # A tibble: 49 x 3
    ##    gd0_weight gd18_weight gd_of_birth
    ##         <dbl>       <dbl>       <dbl>
    ##  1       19.7        34.7          20
    ##  2       27          42            19
    ##  3       26          41.4          19
    ##  4       28.5        44.1          19
    ##  5       NA          NA            20
    ##  6       NA          NA            20
    ##  7       NA          NA            20
    ##  8       NA          NA            20
    ##  9       NA          NA            20
    ## 10       28.5        NA            20
    ## # i 39 more rows

``` r
select(litters_df, litter_number, everything())
```

    ## # A tibble: 49 x 8
    ##    litter_number   group gd0_weight gd18_weight gd_of_birth pups_born_alive
    ##    <chr>           <chr>      <dbl>       <dbl>       <dbl>           <dbl>
    ##  1 #85             Con7        19.7        34.7          20               3
    ##  2 #1/2/95/2       Con7        27          42            19               8
    ##  3 #5/5/3/83/3-3   Con7        26          41.4          19               6
    ##  4 #5/4/2/95/2     Con7        28.5        44.1          19               5
    ##  5 #4/2/95/3-3     Con7        NA          NA            20               6
    ##  6 #2/2/95/3-2     Con7        NA          NA            20               6
    ##  7 #1/5/3/83/3-3/2 Con7        NA          NA            20               9
    ##  8 #3/83/3-3       Con8        NA          NA            20               9
    ##  9 #2/95/3         Con8        NA          NA            20               8
    ## 10 #3/5/2/2/95     Con8        28.5        NA            20               8
    ## # i 39 more rows
    ## # i 2 more variables: pups_dead_birth <dbl>, pups_survive <dbl>

``` r
# will move litter_number from wherever it is to the beginning and keep everything else
```

``` r
relocate(litters_df, litter_number)
```

    ## # A tibble: 49 x 8
    ##    litter_number   group gd0_weight gd18_weight gd_of_birth pups_born_alive
    ##    <chr>           <chr>      <dbl>       <dbl>       <dbl>           <dbl>
    ##  1 #85             Con7        19.7        34.7          20               3
    ##  2 #1/2/95/2       Con7        27          42            19               8
    ##  3 #5/5/3/83/3-3   Con7        26          41.4          19               6
    ##  4 #5/4/2/95/2     Con7        28.5        44.1          19               5
    ##  5 #4/2/95/3-3     Con7        NA          NA            20               6
    ##  6 #2/2/95/3-2     Con7        NA          NA            20               6
    ##  7 #1/5/3/83/3-3/2 Con7        NA          NA            20               9
    ##  8 #3/83/3-3       Con8        NA          NA            20               9
    ##  9 #2/95/3         Con8        NA          NA            20               8
    ## 10 #3/5/2/2/95     Con8        28.5        NA            20               8
    ## # i 39 more rows
    ## # i 2 more variables: pups_dead_birth <dbl>, pups_survive <dbl>
…
